…
``` r
library(tidyverse)
```

``` r
co2 <- 
read_table("https://raw.githubusercontent.com/espm-157/climate-template/master/assignment/co2_mm_mlo.txt", 
                  comment="#",
                  col_names = c("year", "month", "decimal_date", "average",
                                "interpolated", "trend", "days"),
                  na = c("-1", "-99.99"))
co2
```

    ## # A tibble: 749 x 7
    ##     year month decimal_date average interpolated trend  days
    ##    <dbl> <dbl>        <dbl>   <dbl>        <dbl> <dbl> <dbl>
    ##  1  1958     3        1958.    316.         316.  315.    NA
    ##  2  1958     4        1958.    317.         317.  315.    NA
    ##  3  1958     5        1958.    318.         318.  315.    NA
    ##  4  1958     6        1958.     NA          317.  315.    NA
    ##  5  1958     7        1959.    316.         316.  315.    NA
    ##  6  1958     8        1959.    315.         315.  316.    NA
    ##  7  1958     9        1959.    313.         313.  316.    NA
    ##  8  1958    10        1959.     NA          313.  316.    NA
    ##  9  1958    11        1959.    313.         313.  315.    NA
    ## 10  1958    12        1959.    315.         315.  316.    NA
    ## # … with 739 more rows
…
    ## Parsed with column specification:
    ## cols(
    ##   Year = col_double(),
    ##   No_Smoothing = col_double(),
    ##   Lowess = col_double()
    ## )

``` r
temp
```

    ## # A tibble: 140 x 3
    ##     Year No_Smoothing Lowess
    ##    <dbl>        <dbl>  <dbl>
    ##  1  1880        -0.16  -0.08
    ##  2  1881        -0.07  -0.12
    ##  3  1882        -0.1   -0.16
    ##  4  1883        -0.17  -0.19
    ##  5  1884        -0.28  -0.23
    ##  6  1885        -0.32  -0.25
    ##  7  1886        -0.3   -0.26
    ##  8  1887        -0.35  -0.26
    ##  9  1888        -0.16  -0.26
    ## 10  1889        -0.09  -0.25
    ## # … with 130 more rows
…
    ## Parsed with column specification:
    ## cols(
    ##   Year = col_double(),
    ##   No_Smoothing = col_double(),
    ##   Lowess = col_double()
    ## )

``` r
pause
```

    ## # A tibble: 35 x 3
    ##     Year No_Smoothing Lowess
    ##    <dbl>        <dbl>  <dbl>
    ##  1  1985         0.11   0.22
    ##  2  1986         0.18   0.24
    ##  3  1987         0.32   0.27
    ##  4  1988         0.38   0.3 
    ##  5  1989         0.27   0.33
    ##  6  1990         0.45   0.33
    ##  7  1991         0.4    0.32
    ##  8  1992         0.22   0.33
    ##  9  1993         0.23   0.33
    ## 10  1994         0.31   0.34
    ## # … with 25 more rows
…
    ## The following objects are masked from 'package:base':
    ## 
    ##     as.Date, as.Date.numeric

``` r
rolling <- temp %>%
  select(Year, No_Smoothing) %>%
  mutate(five = rollmean(No_Smoothing, k = 5, fill=NA),
         ten = rollmean(No_Smoothing, k = 10, fill=NA),
         twenty = rollmean(No_Smoothing, k = 20, fill=NA))

rolling
```

    ## # A tibble: 140 x 5
    ##     Year No_Smoothing   five    ten twenty
    ##    <dbl>        <dbl>  <dbl>  <dbl>  <dbl>
    ##  1  1880        -0.16 NA     NA     NA    
    ##  2  1881        -0.07 NA     NA     NA    
    ##  3  1882        -0.1  -0.156 NA     NA    
    ##  4  1883        -0.17 -0.188 NA     NA    
    ##  5  1884        -0.28 -0.234 -0.2   NA    
    ##  6  1885        -0.32 -0.284 -0.218 NA    
    ##  7  1886        -0.3  -0.282 -0.233 NA    
    ##  8  1887        -0.35 -0.244 -0.249 NA    
    ##  9  1888        -0.16 -0.248 -0.263 NA    
    ## 10  1889        -0.09 -0.232 -0.264 -0.213
    ## # … with 130 more rows
…
    ## Parsed with column specification:
    ## cols(
    ##   time = col_double(),
    ##   greenland_mass = col_double(),
    ##   antarctica_mass = col_double()
    ## )

``` r
ice_sheets
```

    ## # A tibble: 140 x 3
    ##     time greenland_mass antarctica_mass
    ##    <dbl>          <dbl>           <dbl>
    ##  1 2002.          1491.            967.
    ##  2 2002.          1486.            979.
    ##  3 2003.          1287.            512.
    ##  4 2003.          1258.            859.
    ##  5 2003.          1257.            694.
    ##  6 2003.          1288.            592.
    ##  7 2003.          1337.            658.
    ##  8 2003.          1354.            477.
    ##  9 2003.          1363.            546.
    ## 10 2003.          1427.            494.
    ## # … with 130 more rows
…
``` r
sea_levels_raw
```

    ## # A tibble: 847 x 12
    ##    frequency_type merged_file_cyc…  year no_of_obs no_of_weighted_…
    ##             <dbl>            <dbl> <dbl>     <dbl>            <dbl>
    ##  1              0               11 1993.    463892          336485.
    ##  2              0               12 1993.    458154          333208.
    ##  3              0               13 1993.    469524          341593.
    ##  4              0               14 1993.    419112          305335.
    ##  5              0               15 1993.    456793          330244.
    ##  6              0               16 1993.    414055          299600.
    ##  7              0               17 1993.    465235          336243.
    ##  8              0               18 1993.    463257          334575.
    ##  9              0               19 1993.    458542          330751.
    ## 10            999               20 1993.    464921          339267.
    ## # … with 837 more rows, and 7 more variables: GMSL_variation_noGIA <dbl>,
    ## #   SD_GMSL_variation_noGIA <dbl>, smoothed_GMSL_variation_noGIA <dbl>,
    ## #   GMSL_variation_withGIA <dbl>, SD_GMSL_variation_withGIA <dbl>,
    ## #   smoothed_GMSL_variation_withGIA <dbl>,
    ## #   smoothed_GMSL_variation_withGIA_nosignal <dbl>

``` r
sea_levels<-sea_levels_raw[c(1:847),c(3,12)]
sea_levels
```

    ## # A tibble: 847 x 2
    ##     year smoothed_GMSL_variation_withGIA_nosignal
    ##    <dbl>                                    <dbl>
    ##  1 1993.                                   -14.1 
    ##  2 1993.                                   -14.7 
    ##  3 1993.                                   -14.2 
    ##  4 1993.                                   -14.2 
    ##  5 1993.                                   -13.0 
    ##  6 1993.                                   -11.8 
    ##  7 1993.                                   -10.6 
    ##  8 1993.                                    -9.73
    ##  9 1993.                                    -9.12
    ## 10 1993.                                    -8.76
    ## # … with 837 more rows
…
    ## Parsed with column specification:
    ## cols(
    ##   Year = col_double(),
    ##   Month = col_double(),
    ##   Day = col_double(),
    ##   Extent = col_double(),
    ##   Missing = col_double(),
    ##   `Source Data` = col_character()
    ## )

``` r
sea_ice_raw
```

    ## # A tibble: 13,646 x 6
    ##     Year Month   Day Extent Missing `Source Data`                               
    ##    <dbl> <dbl> <dbl>  <dbl>   <dbl> <chr>                                       
    ##  1  1978    10    26   10.2       0 ['/ecs/DP1/PM/NSIDC-0051.001/1978.10.26/nt_…
    ##  2  1978    10    28   10.4       0 ['/ecs/DP1/PM/NSIDC-0051.001/1978.10.28/nt_…
    ##  3  1978    10    30   10.6       0 ['/ecs/DP1/PM/NSIDC-0051.001/1978.10.30/nt_…
    ##  4  1978    11     1   10.7       0 ['/ecs/DP1/PM/NSIDC-0051.001/1978.11.01/nt_…
    ##  5  1978    11     3   10.8       0 ['/ecs/DP1/PM/NSIDC-0051.001/1978.11.03/nt_…
    ##  6  1978    11     5   11.0       0 ['/ecs/DP1/PM/NSIDC-0051.001/1978.11.05/nt_…
    ##  7  1978    11     7   11.1       0 ['/ecs/DP1/PM/NSIDC-0051.001/1978.11.07/nt_…
    ##  8  1978    11     9   11.2       0 ['/ecs/DP1/PM/NSIDC-0051.001/1978.11.09/nt_…
    ##  9  1978    11    11   11.3       0 ['/ecs/DP1/PM/NSIDC-0051.001/1978.11.11/nt_…
    ## 10  1978    11    13   11.5       0 ['/ecs/DP1/PM/NSIDC-0051.001/1978.11.13/nt_…
    ## # … with 13,636 more rows

``` r
sea_ice_raw_date <- sea_ice_raw %>% 
  mutate(date = as.Date(paste(Year, Month, Day,sep="-"))) 
sea_ice_raw_date
```

    ## # A tibble: 13,646 x 7
    ##     Year Month   Day Extent Missing `Source Data`                     date      
    ##    <dbl> <dbl> <dbl>  <dbl>   <dbl> <chr>                             <date>    
    ##  1  1978    10    26   10.2       0 ['/ecs/DP1/PM/NSIDC-0051.001/197… 1978-10-26
    ##  2  1978    10    28   10.4       0 ['/ecs/DP1/PM/NSIDC-0051.001/197… 1978-10-28
    ##  3  1978    10    30   10.6       0 ['/ecs/DP1/PM/NSIDC-0051.001/197… 1978-10-30
    ##  4  1978    11     1   10.7       0 ['/ecs/DP1/PM/NSIDC-0051.001/197… 1978-11-01
    ##  5  1978    11     3   10.8       0 ['/ecs/DP1/PM/NSIDC-0051.001/197… 1978-11-03
    ##  6  1978    11     5   11.0       0 ['/ecs/DP1/PM/NSIDC-0051.001/197… 1978-11-05
    ##  7  1978    11     7   11.1       0 ['/ecs/DP1/PM/NSIDC-0051.001/197… 1978-11-07
    ##  8  1978    11     9   11.2       0 ['/ecs/DP1/PM/NSIDC-0051.001/197… 1978-11-09
    ##  9  1978    11    11   11.3       0 ['/ecs/DP1/PM/NSIDC-0051.001/197… 1978-11-11
    ## 10  1978    11    13   11.5       0 ['/ecs/DP1/PM/NSIDC-0051.001/197… 1978-11-13
    ## # … with 13,636 more rows

``` r
avg_extent <- summarise(
    group_by (sea_ice_raw_date, Year),
    avg_extent= mean(Extent))
```

    ## `summarise()` ungrouping output (override with `.groups` argument)

``` r
avg_extent
```

    ## # A tibble: 43 x 2
    ##     Year avg_extent
    ##    <dbl>      <dbl>
    ##  1  1978       12.5
    ##  2  1979       12.3
    ##  3  1980       12.3
    ##  4  1981       12.1
    ##  5  1982       12.4
    ##  6  1983       12.3
    ##  7  1984       11.9
    ##  8  1985       12.0
    ##  9  1986       12.2
    ## 10  1987       11.4
    ## # … with 33 more rows
…
    ## Parsed with column specification:
    ## cols(
    ##   `Depth(m)` = col_double(),
    ##   `Age_of_the_ice(yrBP)` = col_double(),
    ##   `Mean_age_of _the_air(yrBP)` = col_double(),
    ##   `Co2_concentration(ppmv)` = col_double()
    ## )

``` r
Co
```

    ## # A tibble: 363 x 4
    ##    `Depth(m)` `Age_of_the_ice(yrB… `Mean_age_of _the_air(… `Co2_concentration(p…
    ##         <dbl>                <dbl>                   <dbl>                 <dbl>
    ##  1       149.                 5679                    2342                  285.
    ##  2       173.                 6828                    3634                  273.
    ##  3       177.                 7043                    3833                  268.
    ##  4       229.                 9523                    6220                  262.
    ##  5       250.                10579                    7327                  255.
    ##  6       266                 11334                    8113                  260.
    ##  7       303.                13449                   10123                  262.
    ##  8       321.                14538                   11013                  264.
    ##  9       332.                15208                   11326                  245.
    ## 10       342.                15922                   11719                  238.
    ## # … with 353 more rows

  - Reverse the ordering to create a chronological record.  
  - Plot data

<!-- end list -->

``` r
chron <- Co %>% arrange(desc(`Age_of_the_ice(yrBP)`))
chron
```

    ## # A tibble: 363 x 4
    ##    `Depth(m)` `Age_of_the_ice(yrB… `Mean_age_of _the_air(… `Co2_concentration(p…
    ##         <dbl>                <dbl>                   <dbl>                 <dbl>
    ##  1      3304.               419328                  417160                  278.
    ##  2      3301.               417638                  415434                  287.
    ##  3      3299.               416332                  414085                  286.
    ##  4      3293.               413010                  410831                  276.
    ##  5      3289.               411202                  409022                  281.
    ##  6      3289.               411202                  409022                  284.
    ##  7      3284.               408236                  405844                  280.
    ##  8      3274.               403173                  400390                  278 
    ##  9      3271.               401423                  398554                  277.
    ## 10      3268.               399733                  396713                  275.
    ## # … with 353 more rows
…
``` r
chron_renamed <- mutate(chron, year = `Age_of_the_ice(yrBP)` * (-1))
ice_age_co2 <- chron_renamed %>% select (year, `Co2_concentration(ppmv)`)
ice_age_co2
```

    ## # A tibble: 363 x 2
    ##       year `Co2_concentration(ppmv)`
    ##      <dbl>                     <dbl>
    ##  1 -419328                      278.
    ##  2 -417638                      287.
    ##  3 -416332                      286.
    ##  4 -413010                      276.
    ##  5 -411202                      281.
    ##  6 -411202                      284.
    ##  7 -408236                      280.
    ##  8 -403173                      278 
    ##  9 -401423                      277.
    ## 10 -399733                      275.
    ## # … with 353 more rows

``` r
co2_renamed <- mutate(co2, `Co2_concentration(ppmv)`= average)
maunaloa_co2 <- co2_renamed %>% select (year, `Co2_concentration(ppmv)`)
maunaloa_co2
```

    ## # A tibble: 749 x 2
    ##     year `Co2_concentration(ppmv)`
    ##    <dbl>                     <dbl>
    ##  1  1958                      316.
    ##  2  1958                      317.
    ##  3  1958                      318.
    ##  4  1958                       NA 
    ##  5  1958                      316.
    ##  6  1958                      315.
    ##  7  1958                      313.
    ##  8  1958                       NA 
    ##  9  1958                      313.
    ## 10  1958                      315.
    ## # … with 739 more rows

  - Consider various smoothing windowed averages of the data.
  - Join this series to Mauna Loa data

<!-- end list -->

``` r
combined <- rbind(ice_age_co2, maunaloa_co2)
combined
```

    ## # A tibble: 1,112 x 2
    ##       year `Co2_concentration(ppmv)`
    ##      <dbl>                     <dbl>
    ##  1 -419328                      278.
    ##  2 -417638                      287.
    ##  3 -416332                      286.
    ##  4 -413010                      276.
    ##  5 -411202                      281.
    ##  6 -411202                      284.
    ##  7 -408236                      280.
    ##  8 -403173                      278 
    ##  9 -401423                      277.
    ## 10 -399733                      275.
    ## # … with 1,102 more rows
…
